{
    "forecastContent": {
        "forecasts": [{
                "dayName": "Thursday",
                "dayNameAbbreviation": "Thu",
                "humidityPercent": 68,
                "localDate": "2017-05-11",
                "pressureMillibars": 997,
                "temperature": {
                    "centigrade": 14,
                    "fahrenheit": 57
                },
                "timeSlot": "10:00",
                "timeZone": "+01:00",
                "visibility": "Moderate",
                "weatherCode": 3,
                "weatherSymbol": {
                    "mobile": "http://static.bbci.co.uk/weather/0.5.284/images/icons/individual_40_icons/en_on_light_bg/3.gif",
                    "webMedium": "http://static.bbci.co.uk/weather/0.5.284/images/icons/individual_56_icons/en_on_light_bg/3.gif",
                    "webSmall": "http://static.bbci.co.uk/weather/0.5.284/images/icons/individual_40_icons/en_on_light_bg/3.gif"
                },
                "weatherType": "Sunny Intervals",
                "wind": {
                    "direction": "E",
                    "directionDesc": "Easterly",
                    "iconGrey": "http://static.bbci.co.uk/weather/0.5.284/images/icons/individual_40_icons/windroses_grey/E.png",
                    "iconWhite": "http://static.bbci.co.uk/weather/0.5.284/images/icons/individual_40_icons/windroses_white/E.png",
                    "windspeed": {
                        "kph": 13,
                        "mph": 8
                    }
                }
            }, {
                "dayName": "Thursday",
                "dayNameAbbreviation": "Thu",
                "humidityPercent": 55,
                "localDate": "2017-05-11",
                "pressureMillibars": 995,
                "temperature": {
                    "centigrade": 18,
                    "fahrenheit": 64
                },
                "timeSlot": "13:00",
                "timeZone": "+01:00",
                "visibility": "Good",
                "weatherCode": 7,
                "weatherSymbol": {
                    "mobile": "http://static.bbci.co.uk/weather/0.5.284/images/icons/individual_40_icons/en_on_light_bg/7.gif",
                    "webMedium": "http://static.bbci.co.uk/weather/0.5.284/images/icons/individual_56_icons/en_on_light_bg/7.gif",
                    "webSmall": "http://static.bbci.co.uk/weather/0.5.284/images/icons/individual_40_icons/en_on_light_bg/7.gif"
                },
                "weatherType": "Light Cloud",
                "wind": {
                    "direction": "ESE",
                    "directionDesc": "East South Easterly",
                    "iconGrey": "http://static.bbci.co.uk/weather/0.5.284/images/icons/individual_40_icons/windroses_grey/ESE.png",
                    "iconWhite": "http://static.bbci.co.uk/weather/0.5.284/images/icons/individual_40_icons/windroses_white/ESE.png",
                    "windspeed": {
                        "kph": 16,
                        "mph": 10
                    }
                }
            }, {
                "dayName": "Thursday",
                "dayNameAbbreviation": "Thu",
                "humidityPercent": 55,
                "localDate": "2017-05-11",
                "pressureMillibars": 994,
                "temperature": {
                    "centigrade": 20,
                    "fahrenheit": 68
                },
                "timeSlot": "16:00",
                "timeZone": "+01:00",
                "visibility": "Good",
                "weatherCode": 3,
                "weatherSymbol": {
                    "mobile": "http://static.bbci.co.uk/weather/0.5.284/images/icons/individual_40_icons/en_on_light_bg/3.gif",
                    "webMedium": "http://static.bbci.co.uk/weather/0.5.284/images/icons/individual_56_icons/en_on_light_bg/3.gif",
                    "webSmall": "http://static.bbci.co.uk/weather/0.5.284/images/icons/individual_40_icons/en_on_light_bg/3.gif"
                },
                "weatherType": "Sunny Intervals",
                "wind": {
                    "direction": "ESE",
                    "directionDesc": "East South Easterly",
                    "iconGrey": "http://static.bbci.co.uk/weather/0.5.284/images/icons/individual_40_icons/windroses_grey/ESE.png",
                    "iconWhite": "http://static.bbci.co.uk/weather/0.5.284/images/icons/individual_40_icons/windroses_white/ESE.png",
                    "windspeed": {
                        "kph": 14,
                        "mph": 9
                    }
                }
            }, {
                "dayName": "Thursday",
                "dayNameAbbreviation": "Thu",
                "humidityPercent": 63,
                "localDate": "2017-05-11",
                "pressureMillibars": 993,
                "temperature": {
                    "centigrade": 18,
                    "fahrenheit": 64
                },
                "timeSlot": "19:00",
                "timeZone": "+01:00",
                "visibility": "Good",
                "weatherCode": 10,
                "weatherSymbol": {
                    "mobile": "http://static.bbci.co.uk/weather/0.5.284/images/icons/individual_40_icons/en_on_light_bg/10.gif",
                    "webMedium": "http://static.bbci.co.uk/weather/0.5.284/images/icons/individual_56_icons/en_on_light_bg/10.gif",
                    "webSmall": "http://static.bbci.co.uk/weather/0.5.284/images/icons/individual_40_icons/en_on_light_bg/10.gif"
                },
                "weatherType": "Light Rain Shower",
                "wind": {
                    "direction": "E",
                    "directionDesc": "Easterly",
                    "iconGrey": "http://static.bbci.co.uk/weather/0.5.284/images/icons/individual_40_icons/windroses_grey/E.png",
                    "iconWhite": "http://static.bbci.co.uk/weather/0.5.284/images/icons/individual_40_icons/windroses_white/E.png",
                    "windspeed": {
                        "kph": 13,
                        "mph": 8
                    }
                }
            }, {
                "dayName": "Thursday",
                "dayNameAbbreviation": "Thu",
                "humidityPercent": 72,
                "localDate": "2017-05-11",
                "pressureMillibars": 994,
                "temperature": {
                    "centigrade": 15,
                    "fahrenheit": 59
                },
                "timeSlot": "22:00",
                "timeZone": "+01:00",
                "visibility": "Good",
                "weatherCode": 7,
                "weatherSymbol": {
                    "mobile": "http://static.bbci.co.uk/weather/0.5.284/images/icons/individual_40_icons/en_on_light_bg/7.gif",
                    "webMedium": "http://static.bbci.co.uk/weather/0.5.284/images/icons/individual_56_icons/en_on_light_bg/7.gif",
                    "webSmall": "http://static.bbci.co.uk/weather/0.5.284/images/icons/individual_40_icons/en_on_light_bg/7.gif"
                },
                "weatherType": "Light Cloud",
                "wind": {
                    "direction": "E",
                    "directionDesc": "Easterly",
                    "iconGrey": "http://static.bbci.co.uk/weather/0.5.284/images/icons/individual_40_icons/windroses_grey/E.png",
                    "iconWhite": "http://static.bbci.co.uk/weather/0.5.284/images/icons/individual_40_icons/windroses_white/E.png",
                    "windspeed": {
                        "kph": 10,
                        "mph": 6
                    }
                }
            }, {
                "dayName": "Friday",
                "dayNameAbbreviation": "Fri",
                "humidityPercent": 85,
                "localDate": "2017-05-12",
                "pressureMillibars": 994,
                "temperature": {
                    "centigrade": 14,
                    "fahrenheit": 57
                },
                "timeSlot": "01:00",
                "timeZone": "+01:00",
                "visibility": "Moderate",
                "weatherCode": 9,
                "weatherSymbol": {
                    "mobile": "http://static.bbci.co.uk/weather/0.5.284/images/icons/individual_40_icons/en_on_light_bg/9.gif",
                    "webMedium": "http://static.bbci.co.uk/weather/0.5.284/images/icons/individual_56_icons/en_on_light_bg/9.gif",
                    "webSmall": "http://static.bbci.co.uk/weather/0.5.284/images/icons/individual_40_icons/en_on_light_bg/9.gif"
                },
                "weatherType": "Light Rain Shower",
                "wind": {
                    "direction": "ESE",
                    "directionDesc": "East South Easterly",
                    "iconGrey": "http://static.bbci.co.uk/weather/0.5.284/images/icons/individual_40_icons/windroses_grey/ESE.png",
                    "iconWhite": "http://static.bbci.co.uk/weather/0.5.284/images/icons/individual_40_icons/windroses_white/ESE.png",
                    "windspeed": {
                        "kph": 8,
                        "mph": 5
                    }
                }
            }, {
                "dayName": "Friday",
                "dayNameAbbreviation": "Fri",
                "humidityPercent": 93,
                "localDate": "2017-05-12",
                "pressureMillibars": 993,
                "temperature": {
                    "centigrade": 13,
                    "fahrenheit": 55
                },
                "timeSlot": "04:00",
                "timeZone": "+01:00",
                "visibility": "Good",
                "weatherCode": 12,
                "weatherSymbol": {
                    "mobile": "http://static.bbci.co.uk/weather/0.5.284/images/icons/individual_40_icons/en_on_light_bg/12.gif",
                    "webMedium": "http://static.bbci.co.uk/weather/0.5.284/images/icons/individual_56_icons/en_on_light_bg/12.gif",
                    "webSmall": "http://static.bbci.co.uk/weather/0.5.284/images/icons/individual_40_icons/en_on_light_bg/12.gif"
                },
                "weatherType": "Light Rain",
                "wind": {
                    "direction": "SSE",
                    "directionDesc": "South South Easterly",
                    "iconGrey": "http://static.bbci.co.uk/weather/0.5.284/images/icons/individual_40_icons/windroses_grey/SSE.png",
                    "iconWhite": "http://static.bbci.co.uk/weather/0.5.284/images/icons/individual_40_icons/windroses_white/SSE.png",
                    "windspeed": {
                        "kph": 11,
                        "mph": 7
                    }
                }
            }, {
                "dayName": "Friday",
                "dayNameAbbreviation": "Fri",
                "humidityPercent": 89,
                "localDate": "2017-05-12",
                "pressureMillibars": 995,
                "temperature": {
                    "centigrade": 12,
                    "fahrenheit": 54
                },
                "timeSlot": "07:00",
                "timeZone": "+01:00",
                "visibility": "Very Good",
                "weatherCode": 7,
                "weatherSymbol": {
                    "mobile": "http://static.bbci.co.uk/weather/0.5.284/images/icons/individual_40_icons/en_on_light_bg/7.gif",
                    "webMedium": "http://static.bbci.co.uk/weather/0.5.284/images/icons/individual_56_icons/en_on_light_bg/7.gif",
                    "webSmall": "http://static.bbci.co.uk/weather/0.5.284/images/icons/individual_40_icons/en_on_light_bg/7.gif"
                },
                "weatherType": "Light Cloud",
                "wind": {
                    "direction": "SSW",
                    "directionDesc": "South South Westerly",
                    "iconGrey": "http://static.bbci.co.uk/weather/0.5.284/images/icons/individual_40_icons/windroses_grey/SSW.png",
                    "iconWhite": "http://static.bbci.co.uk/weather/0.5.284/images/icons/individual_40_icons/windroses_white/SSW.png",
                    "windspeed": {
                        "kph": 11,
                        "mph": 7
                    }
                }
            }],
        "location": {
            "continent": null,
            "country": "United Kingdom",
            "county": null,
            "id": "2643186",
            "latitude": "51.533",
            "locationName": "Maidenhead",
            "longitude": "-0.733",
            "state": null,
            "timezoneName": "Europe/London"
        }
    }
}

